{"photos": {"page": 1, "pages": 15223, "perpage": 25, "total": "380573", "photo": [{"id": "48025689973", "owner": "28909042@N00", "secret": "e2ee120788", "server": "65535", "farm": 66, "title": "Sunrise over Lake Grasmere", "ispublic": 1, "isfriend": 0, "isfamily": 0}, {"id": "48025695337", "owner": "7331818@N02", "secret": "aa3e5f0003", "server": "65535", "farm": 66, "title": "Trees. Fog.", "ispublic": 1, "isfriend": 0, "isfamily": 0}, {"id": "48025663368", "owner": "43537433@N02", "secret": "98f49c1997", "server": "65535", "farm": 66, "title": "Ash Tree", "ispublic": 1, "isfriend": 0, "isfamily": 0}, {"id": "48025636068", "owner": "18284386@N02", "secret": "968d00610b", "server": "65535", "farm": 66, "title": "Downtown OKC", "ispublic": 1, "isfriend": 0, "isfamily": 0}, {"id": "48025635813", "owner": "18284386@N02", "secret": "c20d1a4b46", "server": "65535", "farm": 66, "title": "Downtown OKC", "ispublic": 1, "isfriend": 0, "isfamily": 0}, {"id": "48025705142", "owner": "39415781@N06", "secret": "f79b945577", "server": "65535", "farm": 66, "title": "Caves Codorn\u00edu - tourist road train ride - stone wheel", "ispublic": 1, "isfriend": 0, "isfamily": 0}, {"id": "48025696087", "owner": "18284386@N02", "secret": "88e132a275", "server": "65535", "farm": 66, "title": "Downtown OKC", "ispublic": 1, "isfriend": 0, "isfamily": 0}, {"id": "48025695747", "owner": "18284386@N02", "secret": "d311af288f", "server": "65535", "farm": 66, "title": "Downtown OKC", "ispublic": 1, "isfriend": 0, "isfamily": 0}, {"id": "48025590501", "owner": "18284386@N02", "secret": "f6e928ac34", "server": "65535", "farm": 66, "title": "Downtown OKC", "ispublic": 1, "isfriend": 0, "isfamily": 0}, {"id": "48025590126", "owner": "18284386@N02", "secret": "0369562524", "server": "65535", "farm": 66, "title": "Downtown OKC", "ispublic": 1, "isfriend": 0, "isfamily": 0}, {"id": "48025618663", "owner": "18284386@N02", "secret": "b0ccb51569", "server": "65535", "farm": 66, "title": "Downtown OKC", "ispublic": 1, "isfriend": 0, "isfamily": 0}, {"id": "48025618288", "owner": "18284386@N02", "secret": "b6494b0e48", "server": "65535", "farm": 66, "title": "Downtown OKC", "ispublic": 1, "isfriend": 0, "isfamily": 0}, {"id": "48025617973", "owner": "18284386@N02", "secret": "8f221f668c", "server": "65535", "farm": 66, "title": "Downtown OKC", "ispublic": 1, "isfriend": 0, "isfamily": 0}, {"id": "48025588971", "owner": "18284386@N02", "secret": "66f35116ff", "server": "65535", "farm": 66, "title": "Downtown OKC", "ispublic": 1, "isfriend": 0, "isfamily": 0}, {"id": "48025617203", "owner": "18284386@N02", "secret": "04b19e9e4c", "server": "65535", "farm": 66, "title": "Downtown OKC", "ispublic": 1, "isfriend": 0, "isfamily": 0}, {"id": "48025693012", "owner": "18284386@N02", "secret": "3a52e482c4", "server": "65535", "farm": 66, "title": "Downtown OKC", "ispublic": 1, "isfriend": 0, "isfamily": 0}, {"id": "48025616673", "owner": "18284386@N02", "secret": "f1d4f2369b", "server": "65535", "farm": 66, "title": "Downtown OKC", "ispublic": 1, "isfriend": 0, "isfamily": 0}, {"id": "48025587586", "owner": "18284386@N02", "secret": "fc42608030", "server": "65535", "farm": 66, "title": "Downtown OKC", "ispublic": 1, "isfriend": 0, "isfamily": 0}, {"id": "48025616323", "owner": "39415781@N06", "secret": "ac8bc13a73", "server": "65535", "farm": 66, "title": "Caves Codorn\u00edu - tourist road train ride - stone wheel", "ispublic": 1, "isfriend": 0, "isfamily": 0}, {"id": "48025692047", "owner": "18284386@N02", "secret": "d593665c64", "server": "65535", "farm": 66, "title": "Downtown OKC", "ispublic": 1, "isfriend": 0, "isfamily": 0}, {"id": "48025615798", "owner": "18284386@N02", "secret": "9cff8dc006", "server": "65535", "farm": 66, "title": "Downtown OKC", "ispublic": 1, "isfriend": 0, "isfamily": 0}, {"id": "48025691552", "owner": "18284386@N02", "secret": "68f2bac418", "server": "65535", "farm": 66, "title": "Downtown OKC", "ispublic": 1, "isfriend": 0, "isfamily": 0}, {"id": "48025586606", "owner": "18284386@N02", "secret": "3cf72264f4", "server": "65535", "farm": 66, "title": "Downtown OKC", "ispublic": 1, "isfriend": 0, "isfamily": 0}, {"id": "48025615068", "owner": "18284386@N02", "secret": "cf95e00cf3", "server": "65535", "farm": 66, "title": "Downtown OKC", "ispublic": 1, "isfriend": 0, "isfamily": 0}, {"id": "48025585906", "owner": "18284386@N02", "secret": "ec706a2992", "server": "65535", "farm": 66, "title": "Downtown OKC", "ispublic": 1, "isfriend": 0, "isfamily": 0}]}, "stat": "ok"}